<svg width="22" height="18" viewBox="0 0 22 18" fill="none" xmlns="http://www.w3.org/2000/svg">
    <path d="M3 1H19C20.1 1 21 1.9 21 3V15C21 16.1 20.1 17 19 17H3C1.9 17 1 16.1 1 15V3C1 1.9 1.9 1 3 1Z" stroke="#273283" stroke-width="2" stroke-linecap="round" stroke-linejoin="round"/>
    <path d="M21 4L11 11L1 4" stroke="#273283" stroke-width="2" stroke-linecap="round" stroke-linejoin="round"/>
</svg>
